section: US
------------------------
Alphas: 1.912579069,0.457290403833,1.58388391339,1.64734220066,1.18595260534,1.55547980113,1.17218745127,0.831860190756,0.681195947691,1.2605583162
Mus: 0.607022422558,0.542983911025,2.96269455689,0.153358378179,1.22721207321,3.13135446648,0.0752054919664,3.51424321581,0.295568718193,2.98412263454
Etas: 0.2861325408,0.0134568288743,1.59482801656,0.235128902486,0.0347415610851,0.490552835814,0.000804354669847,0.0400642538213,0.0359480393668,0.23735026568
Phis: 1.2510654726,0.516039747356,1.49983212856,1.16598219391,0.471723385822,1.19791446847,0.340278011314,0.783725733097,0.784434007355,0.905806227071
Shis: 0.874173216071,0.132341284915,0.327510602437,0.831923331047,1.67380020925,0.0390917036242,0.0649419503686,0.617446858928,0.0133740998277,0.166821549366
Ros: 2.13324182318,3.36060554594,13.5319533295,2.15150829525,6.83768110905,8.63315474615,2.19187012599,4.37852288432,2.15923985972,6.91046886715
Neus: 0.666286258116,0.000101227235243,0.0265864444643,0.0251515297522,0.000216164894609,0.0414308006012,0.000251393715908,0.0691327766204,0.000201324529945,0.0211960711472,0.000165898101945,0.607418462157,0.000568319274543,0.000500618528564,0.000603886786108,0.000203288380377,0.0697236370808,0.000199685391137,0.000159679788426,0.0153540821662,0.000123359502872,0.000179991029418,0.706803972185,0.212043869772,0.000276287188759,0.0774716077145,0.000259721176986,0.000225432075148,0.00014640564702,0.000561878373376,0.0583167994513,0.00105930762313,0.205339491586,0.338877689455,0.0210806855024,0.0619513091545,0.000259219897685,0.156532622824,0.0460473848647,0.124988741866,0.00463100748766,0.000151251116906,0.0138266164234,0.000258389668242,0.836559087961,0.0149257030434,0.0465845310975,0.000406385289038,0.0265980478404,0.0292160374362,0.0175472755215,0.128927339449,0.067840487235,0.000266702002642,0.00014377506027,0.423422586314,0.0213414171789,0.0932757191598,0.0546146071971,0.124870527612,0.00206868541586,0.010832309241,0.00200466313204,0.0038985780401,0.00275876287013,0.000281866894945,0.132389111074,0.000214854245476,0.0468726186076,0.000221125419686,0.000162253022242,0.000150267632697,0.0060872123726,0.0175012416923,0.00684460022707,0.0265824437394,0.000173816928709,0.586702753672,0.00723077838153,0.000249163020952,0.00547701089105,0.093167983995,0.00210640095033,0.00060655933967,0.000201357494251,0.0152213411849,0.107757527825,0.0232409557382,0.699247506037,0.000206619024872,0.000206482248674,0.36573273231,0.0860271222097,0.0606762777844,0.0232165427326,0.0754956115088,0.0471028401658,0.000407887025018,0.012257794864,0.257782574582

section: Movies
------------------------
Alphas: 1.14724804289,0.00719657700377,0.612559838157,0.729164284446,0.00674403458413,1.6699339189,0.286224244743,0.36777404912,0.455715690176,0.788569898874
Mus: 14.3378632983,1.03312047976,6.38560934671,0.22649838776,1.23546817061,0.314998297047,1.86708599992,0.0824260157061,1.0746528025,2.94663034817
Etas: 1.04231921857,0.00199537138643,0.131587225823,0.00318619278767,0.00424682484716,0.164554056398,0.0594899349297,0.00188971934449,0.0386688704889,0.26448077609
Phis: 1.58749973813,0.0946368742898,1.42756172746,0.813989671341,0.106931442814,1.32470143397,1.08319470908,0.558768027543,0.00830189498604,1.09168303743
Shis: 0.272964123571,0.172957062623,0.299927156237,0.0232299316135,0.1252617652,0.178568733126,0.468560334328,0.035948022103,0.496845020063,0.0788447424311
Ros: 8.00905431487,2.00423836852,7.22134639044,2.24943617752,2.20231816965,4.27524042437,5.69260631082,2.57659647371,4.12875333807,5.20852952513
Neus: 0.904364206811,0.000353245942424,0.0559634016506,0.000799183912287,0.000335060725726,0.0283255483108,0.00921784090317,0.000375951200757,0.000159118730325,0.000993640890582,0.00147425031822,0.199112030817,0.000344186867634,0.000269658921351,0.000491097542356,0.000819642642297,0.000219371663059,0.000580726264631,0.000526585593156,0.000439347887231,0.0117935218654,0.00114473159101,0.809403676881,0.000623778838653,0.000361139733186,0.0634333336409,0.104966360692,0.0075942873783,0.000472847681412,0.000367093151811,0.00173788063224,0.0440529834253,0.0134451081154,0.471861798854,0.0403372468875,0.0214614402418,0.0640818453352,0.157796839538,0.102647086654,0.000371028535902,0.00143997798926,0.164772523802,0.000447227245417,0.024616535363,0.00071304087369,0.00059455833758,0.00056735092412,0.000212377565614,0.000389418882986,0.00082200157735,0.0145272964217,0.05061256554,0.0980959306166,0.0698064105974,0.116073881214,0.349212263076,0.000490126143407,0.135487959633,0.0538937035312,0.0643897784517,0.000943291750515,0.000394409353216,0.0123797680464,0.037631893798,0.000176901887191,0.000526069257551,0.75106751227,0.058375396102,0.107620159954,0.000314793067649,0.00143026167958,0.194088416739,0.00924925396231,0.000778281899787,0.0245108620876,0.000603580077281,0.0230282547919,0.619090707425,0.000298694748936,0.000126544900391,0.00285110427326,0.124797127119,0.00198041444305,0.000850894332049,0.000600388823332,0.000365725872177,0.0351021152313,0.000468820980687,0.659088576321,0.0113016139479,0.0227171684838,0.0681878042317,0.000535163418188,0.000238906446492,0.000167977013167,0.0563615293846,0.000513910422633,6.10210191475e-05,0.00466421243561,0.402765609059

section: Sports
------------------------
Alphas: 1.82575652639,1.64833590755,1.74664485824,0.00820270035443,0.710950485677,1.07070472262,1.16703928784,0.72755468935,0.740803913922,1.70650417464
Mus: 13.9141809917,0.49481889236,7.8519435101,0.281470724065,0.302330528772,4.64288839692,0.179101488324,5.41184625674,1.0104550564,1.38858878169
Etas: 0.126625973191,0.00409122812055,0.547681105895,0.00386961722695,0.00184356405843,0.429113912639,0.0208570229888,0.14933433817,0.00142192970703,0.8730415406
Phis: 1.14617374253,0.704726116146,1.14271959792,0.189090070756,0.588299495523,1.41583399886,0.461349105887,0.976774225686,0.668901949335,0.395115594478
Shis: 0.119211078449,0.23537311962,0.430727430147,0.222756406659,0.340574730177,0.150379476656,0.242897690341,0.124989700036,0.0623215802524,1.22732948458
Ros: 7.99337739318,4.28806666729,12.0661060295,2.63472843778,2.148798448,9.50374083607,3.00676843063,6.38409832239,2.56227733815,10.5493157579
Neus: 0.888904744932,0.046667669888,0.0650403188151,0.000136351667922,0.000170557600234,4.3459472561e-05,0.000350703490101,0.000192887797607,0.000272793159423,0.000439719108212,0.0361018591549,0.248345202477,0.0020393679155,0.0359735218273,0.000200658279778,0.000307715958645,0.00020450432747,0.00171549413573,0.000290150905209,0.000641261497036,0.202597944447,0.000383330121954,0.77988022307,2.79702426288e-05,0.000205862461202,0.0150881114492,0.000148970363356,0.000234650972453,0.000189591146901,0.000314079900052,0.000923510515646,0.000228380849741,0.00118181915767,0.000713335876531,0.385515889876,0.000643063084437,0.000417310134504,0.00881937234517,0.00021367201075,0.000591401215036,0.00104084741528,0.000330511861599,0.00136680434707,0.0680749433808,0.512938303094,0.000313420046169,0.00480233602565,0.00197873595381,0.000325584005666,0.000699797579963,0.000220820734752,0.00033000889825,0.00530415721109,0.0231472817169,0.00029966535364,0.711718499008,0.0590954906242,0.0207406875256,0.0668049517072,0.0700104454655,0.000719688466033,0.000224731850917,0.000792021086824,0.0188915189321,0.0786564611947,0.00447624141896,0.293597252628,0.0168022750293,0.000335352266662,0.0227212164538,0.000474340385704,0.000303839360148,0.000865452373805,0.000105847096621,0.0287226972498,0.00656685561797,0.000309897925474,0.904901502476,0.0569108916645,0.000529600891695,0.000771845462055,0.000333298230149,0.000864026125353,0.000115358277097,0.000152407895032,0.00686289867599,0.000296933207713,0.0173565399845,0.335847217984,0.00709230894054,0.000249091137317,0.000322277022067,0.00540732099971,0.000105273155204,0.000913399034817,0.165971768632,0.067425025539,0.082207100785,0.000330913977369,0.681792752027

section: World
------------------------
Alphas: 0.245007191699,0.245639049133,0.485178556539,0.149733022058,0.959141723384,0.232568472079,0.169526541646,0.0435828543013,0.0327290818181,0.274109998134
Mus: 0.283588812265,1.12817527643,2.74664764145,0.535736199345,0.260419285596,1.62976823995,1.21700285912,0.139766598561,1.92178954529,0.651826141582
Etas: 0.000953863392586,0.0424695148207,0.0171792089191,0.00119655276044,0.00148617316805,0.13612783801,0.00784186461281,0.01962720263,0.0189348497375,0.005525242833
Phis: 0.021396112673,0.139513894485,0.184164048154,0.136342940312,0.267451275058,0.334923978964,0.298502943036,0.366591570577,0.215981508035,0.00104983996644
Shis: 0.118307737823,0.246355624347,0.245028950022,0.131304759467,0.0194422784325,0.00227660351145,0.0320297454827,0.352160216556,0.0270641685725,0.156634203685
Ros: 2.00113512818,5.6194457333,5.49895650612,2.18017528396,2.1755135506,4.72777280073,3.46513212987,2.02315765223,2.54044978182,2.20867876783
Neus: 0.100178354278,1.69857196495e-05,0.000999730928563,0.000151485203021,0.020275155577,0.000639794820627,0.0164755127951,8.10275536689e-06,1.35940109995e-05,0.0164866333957,5.34513841566e-06,0.935291293814,2.41415578018e-05,1.56306585298e-05,1.1169889856e-05,0.0252527746116,2.19523302592e-06,0.00127643668837,0.0270635803758,2.67208432656e-05,5.00002206826e-06,1.35592765231e-05,0.911853789108,4.02084951863e-06,8.31809638578e-07,0.0153760537552,0.0261348016457,0.000154525702191,0.0186647692476,1.80572430716e-06,5.34782130544e-06,1.60626642794e-05,0.00649826174234,0.453477536759,0.0510041774006,1.66877654782e-05,0.0111822835688,1.56527200984e-05,0.0676443801336,0.00687486752604,0.0137513674033,7.73979748509e-06,0.0482435828343,7.08839873989e-06,0.0715687495044,0.000932497223695,0.0220130633208,4.96756855536e-06,3.67851526625e-06,9.74985275471e-06,8.21097067008e-06,0.0032647122969,0.0289433574344,2.16985337202e-05,1.13406220219e-05,0.821430273901,2.23204447407e-05,1.4338768944e-05,8.94884834874e-06,0.146182390251,0.110015891623,1.255226121e-05,0.0631464180891,1.75823145737e-05,1.74720021684e-05,3.27275736626e-05,0.688428225416,0.0653551547689,1.49714936927e-05,0.00181620249219,0.00148726308304,2.3293553892e-05,0.000879813316726,0.0302354537518,0.00201928910398,0.00241346240685,0.00534328713994,9.46190563672e-06,0.0072458287598,2.99193893102e-05,5.34442491558e-06,0.000997813222126,3.19556447525e-05,1.73948876423e-05,7.62667968575e-06,1.66797192284e-05,0.0196828500742,0.313471575902,0.407904133351,0.000317314669636,1.68262768269e-05,0.0096426240011,0.00242253396246,0.0745124654127,0.0616037540201,0.0247267424068,1.48949802216e-05,1.90085737141e-05,3.77536372874e-06,0.31281526426

