iteration: 0
----------------------
Etas: [0.27227075376937854, 0.010992194436474003, 1.5948280165591662, 0.23480741826863544, 0.038534148015465675, 0.5269077432558148, 0.0010570494318496511, 0.04006425382125816, 0.035948039366784687, 0.22372581016141008]
Alphas: [1.6833301615044085, 0.45729040383300246, 1.5838839133857261, 1.6473422006582388, 1.1688607387522449, 1.5554798011321613, 1.247607664827151, 0.83186019075567685, 0.64117281527919312, 1.2448768484591914]
Neus: [[0.68589556046213496, 0.00010122723524332265, 0.026586444464331636, 0.0165716278010083, 0.00023361380559353849, 0.048252323685558936, 0.00025139371590767861, 0.045689281349420303, 0.00020507074884788421, 0.024459851869807127], [0.00088963360593652006, 0.62579351108712056, 0.00040198679401138665, 0.00037197428411745673, 0.0036723628220978917, 0.00020328838037658126, 0.087717510258578768, 0.00028527107026802472, 0.0002512744506452697, 0.014650478391642732], [0.00012335950287222557, 0.00017999102941839383, 0.71437063056447858, 0.20849064794105471, 0.00027628718875919773, 0.077471607714480764, 0.00025972117698609112, 0.00024004584475218981, 6.37210312162872e-05, 0.00049680295103771187], [0.057646065933589105, 0.0010593076231311413, 0.20533949158561726, 0.33887768945522734, 0.011766181780982847, 0.058734303903516527, 0.0002592198976852634, 0.15653262282449235, 0.046047384864742323, 0.12617307126834934], [0.0056409702494776481, 0.00020320089531615954, 0.0099838031030652016, 0.00013551052304247552, 0.85362808013461855, 0.014925703043401049, 0.046584531097527242, 0.001209323278656606, 0.026598047840392311, 0.040517388632159736], [0.017547275521463811, 0.13726465243525066, 0.067840487234963179, 7.559218134234971e-05, 0.00021998623220886415, 0.41647161708763536, 0.040447546582210329, 0.087734947875762026, 0.047912814095249369, 0.13793534334915511], [0.0020686854158592427, 0.010832309241041718, 0.0020046631320395983, 0.0038985780401035886, 0.0027587628701330248, 0.00021548643754957364, 0.13238911107396562, 0.00016826042180551098, 0.03173652592939178, 0.00022112541968593308], [0.00011337301447373603, 0.00014104222073832543, 0.006087212372601087, 0.018457642496037503, 0.0034122699292668947, 0.024646253791940603, 0.00017381692870887245, 0.6041028044145148, 0.0072728677685110479, 3.7369610749264084e-05], [0.0038230218986113154, 0.093167983995000092, 0.0021064009503271447, 0.00017269864771036117, 0.0003213878284771755, 0.015221341184922984, 0.13186747684494413, 0.027903206495894763, 0.71389695107180295, 0.00010853221598342916], [0.00020648224867371613, 0.3906783113192096, 0.088811252860975187, 0.052438174426977568, 0.023169765379409023, 0.071543292295741745, 0.07895318707087938, 5.6072151402425862e-05, 0.0043217552002101254, 0.29021576021667816]]
Ros: [2.0517057318500487, 2.7844891578670219, 13.531953329523574, 2.0464345334115381, 6.8376811090501306, 8.5266074521231943, 2.0667443201703368, 4.3991207206704646, 2.0371340549211183, 6.8424285560844487]
Mus: [0.57928810378457418, 0.44577023398922594, 2.9626945568889846, 0.14410595568725887, 1.22721207321145, 3.1313544664796749, 0.071242809183410291, 3.5142432158050028, 0.26487874982861503, 2.9543283465347216]
Phis: [0.74083773736494185, 0.83494191289500808, 1.5975883748101465, 0.86709423258279905, 0.47172338582185813, 1.5165284093927969, 0.68964631317440173, 0.78372573309715687, 0.94765159596239834, 0.90580622707106617]
Shis: [0.54456692247466587, 0.027600114055802743, 0.32751060243706814, 0.4748347444360636, 1.7660992201301022, 0.0088348119521160645, 0.22106463974662138, 0.45196344364449365, 0.0093455135348950221, 0.15420413983592013]
Spectral radius of the branch matrix: 0.873441101016






iteration: 1
----------------------
Etas: [0.29940265869694266, 0.0090451317006698412, 1.5626254522912453, 0.2351289024859331, 0.021715732558385093, 0.48863802872342232, 0.00080435466984694242, 0.036231141343272398, 0.047962959922256153, 0.23735026567950024]
Alphas: [1.6208663319338885, 0.38485742498730191, 1.5495084826248899, 1.6980466317744134, 1.1183400691572856, 1.4728896501193196, 1.0801184891996838, 0.74573758460346173, 0.68119594769083147, 1.2831700649625559]
Neus: [[0.68432211969679968, 8.7343717701301906e-05, 0.020630803488743136, 0.024510446202497673, 3.4714867215120339e-05, 0.041430800601227336, 0.0001030025134981549, 0.052345979643620109, 0.00013549285104581991, 0.033503766872795812], [0.0002429906343204412, 0.64019672642208736, 0.00034681335895195677, 9.6046869684367648e-05, 0.00060388678610754363, 0.00019873551830140127, 0.10391421226261449, 0.0001996853911374498, 4.8510210237813542e-05, 0.01737520761404783], [6.2627696929943194e-05, 0.00016046704620650707, 0.70224361276477631, 0.22636342318665045, 8.067558597582042e-05, 0.071888642334307681, 0.00016621321994964619, 0.00022543207514843716, 0.00014640564701971518, 0.00024799531675643964], [0.058316799451320893, 0.00082572395132817313, 0.19846410989400248, 0.35040435031886963, 0.021080685502436945, 0.063855660582143758, 7.4844278806597618e-05, 0.1353439925766613, 0.048401507580808349, 0.12498874186571805], [0.0051912855213722851, 0.00015125111690623443, 0.012371805839998938, 0.00025838966824205857, 0.84630530292374839, 0.014606685700852313, 0.045194371762347856, 1.0615632564682745e-05, 0.031851302579914642, 0.03308278013386412], [0.010262505428449559, 0.15660386801178625, 0.07174535062211293, 0.00025898869724980074, 1.5367551009648953e-05, 0.42464256313920962, 0.0053936190161869586, 0.10584259407836756, 0.072033673841941287, 0.10870309310334092], [0.0023210040470634363, 0.011988387009610531, 0.0016375104231063007, 0.0042340190033131235, 0.0018244833685902289, 0.000204770649576868, 0.14446303807792971, 0.00093594303617015732, 0.046292199405157095, 0.0002421883704608282], [0.00016225302224212219, 0.00011563798079856643, 0.0031531546160880868, 0.017501241692268493, 0.0068446002270748929, 0.02658244373942777, 2.9743887775241392e-05, 0.61888613799866266, 0.025916756727113247, 0.00016266001450230465], [0.0054770108910475873, 0.10225459471152622, 0.0018449132278849662, 0.00012488382490017879, 0.00021367702558221753, 0.016244927629149745, 0.1077575278249891, 0.018116390383226016, 0.71990373458953028, 0.00013208945151524802], [8.2838730033056286e-05, 0.38163000474918785, 0.086027122209688736, 0.060676277784412286, 0.021088942852751123, 0.078848106121856429, 0.018300958470958847, 0.00022324606565203716, 0.012257794864037802, 0.25778257458199799]]
Ros: [2.0532029206974141, 3.1682187920229472, 13.414248272787074, 2.0681667792316287, 6.7910824027454035, 8.4264937438100915, 2.0446393175242252, 4.378522884316788, 2.0461133891877643, 7.0156928575568731]
Mus: [0.58826011341250062, 0.52640276499227956, 2.9210927154676791, 0.148979551853654, 1.2047341960324114, 3.0371371069234963, 0.074146498857864701, 3.547806652548251, 0.27411780420231113, 2.9841226345369534]
Phis: [0.71981292532559937, 0.43073253135972905, 1.3823534466427798, 0.52875008341446983, 0.22393575198586496, 0.81651910252078852, 0.33177300388016734, 0.53345369898339823, 0.53849959807787606, 0.60004921217173068]
Shis: [0.5691486027621957, 0.10485540425980841, 0.12987206062836612, 0.36953833763752064, 0.7455105496946679, 0.039091703624230395, 0.017239783366193692, 0.34907198119699029, 0.0091590810145058925, 0.082726121332513641]
Spectral radius of the branch matrix: 0.870652404544






iteration: 2
----------------------
Etas: [0.24776573259282789, 0.013841390890457805, 1.4274769779041376, 0.20602687521420887, 0.034741561085092874, 0.44978444949714919, 0.0017995635027013956, 0.034957182610550648, 0.032990474993810956, 0.2205120526167442]
Alphas: [2.2300169146392594, 0.50853589419107592, 1.4681923415917499, 1.4524093747150615, 1.1959722611972803, 1.3763615962223517, 1.0537458441112948, 0.89797143552937353, 0.62147530416061059, 1.2069077594113893]
Neus: [[0.6332255197089417, 0.00056700895714131871, 0.029171745215934946, 0.042288696681331069, 0.00015972576998830041, 0.032055073750294871, 4.1039873797988038e-05, 0.089562537276849749, 0.00020132452994501204, 0.021196071147220382], [0.00016589810194497654, 0.53591411538915767, 0.00077967038458420519, 0.00069630151033790407, 0.00045615709450981876, 0.00038994986603938208, 0.054793109344952594, 0.00014445026556149113, 0.00034481850442066576, 0.01744340666695331], [0.00011157406623030379, 5.0657963686197861e-06, 0.71140569277653909, 0.21204386977154005, 0.00048157338174840931, 0.056175577158125878, 2.5163200509677299e-05, 3.6319661849799144e-05, 0.00014401828268725849, 0.022049366612378662], [0.064508744543003982, 0.00065164196558981807, 0.23553765062361504, 0.24864150645362559, 0.021978763062823817, 0.061951309154538288, 0.00028156863850347595, 0.22204319782648255, 0.035517653952213436, 0.12334541614678955], [0.0033742191518661407, 0.00013937218563403391, 0.014897987505531689, 0.00025596136772147574, 0.83655908796071565, 0.026753801340540395, 0.057333793606650398, 0.00025292152893589343, 0.015175939902999843, 0.025237472063186765], [0.009063246602066824, 0.12892733944910861, 0.060213734669637517, 0.00088623182234081298, 0.00030323847121468229, 0.48478496368135182, 0.00023246951216011807, 0.081906005972660928, 0.054614607197097306, 0.12487052761190261], [0.0016440724361046126, 0.0063456693875469138, 0.0010009248941903054, 0.0053569947891471837, 0.002986774885224937, 0.00028186689494459556, 0.11010005554237536, 0.0002326687161797686, 0.047915832403876202, 0.00017682852331102225], [0.00029322022831637797, 0.00015026763269664485, 0.0038627690274284977, 0.014905010353275119, 0.013485611027055977, 0.03440299935593711, 0.00011896201193154615, 0.56548134180569321, 0.00723077838153483, 0.00024916302095151537], [0.0043012372662154042, 0.085784836827724142, 0.0024095040731897644, 0.0006065593396704439, 0.00020135749425087649, 0.014124760429576002, 0.13819865246996391, 0.049125690333599231, 0.64592199802651051, 0.00020661902487182306], [3.401580436437182e-05, 0.35087073842677274, 0.086246528370341816, 0.046383283064982912, 0.0299253519154969, 0.13872528451010929, 0.019890377653981044, 0.0047163639458405009, 0.019042329884890997, 0.22109567285711434]]
Ros: [2.13324182318408, 3.6660487583223222, 14.605303452560754, 2.1515082952547275, 6.6108132614775208, 8.6331547461511171, 2.2959789502939407, 4.1837682094487825, 2.2118169385846507, 6.4240628444691836]
Mus: [0.60702242255773786, 0.66182032989213746, 3.1846220167802488, 0.15335837817853015, 1.1962383213246504, 3.1284649406697396, 0.099394557026870348, 3.4188018874629931, 0.29556871819342939, 2.8825893308349224]
Phis: [1.7637080353011578, 0.51603974735642977, 0.85799425423769016, 2.740444434350779, 0.79656736763551361, 0.4255542535449196, 0.32936583317433965, 2.9159054961928144, 0.78443400735466196, 0.69048640170787379]
Shis: [1.1214740014701647, 0.18658225106375226, 0.29123289000876224, 5.8273122448922683, 1.6738002092522515, 0.017327024346439363, 0.034126639747384495, 0.72611469928807171, 0.027992176298071301, 0.193322040297215]
Spectral radius of the branch matrix: 0.86678696122






iteration: 3
----------------------
Etas: [0.28613254079989581, 0.013456828874253245, 1.6521398219214098, 0.28784992339275212, 0.022345248036693584, 0.49055283581358866, 0.00067892847977200118, 0.052688481650467772, 0.033464343757190346, 0.28771570719416523]
Alphas: [1.9125790690027487, 0.44464821526877257, 1.5966016948448816, 2.0226459024454018, 1.1859526053425802, 1.7348543814528261, 1.1721874512706971, 0.76060730299819146, 0.74733691280021675, 1.2605583161953191]
Neus: [[0.66628625811615028, 0.00045610476543131076, 0.023696108257515607, 0.025151529752199288, 0.00021616489460894587, 0.055881706359484473, 0.00041651807327010764, 0.069132776620449379, 0.00054164246146985902, 0.016141832871952408], [0.00013533615540709478, 0.6074184621566997, 0.00056831927454263208, 0.00050061852856427154, 0.00053534443824211078, 0.00028881200633930771, 0.069723637080845197, 0.00037089000109702532, 0.0001596797884255474, 0.015354082166198962], [0.00051068514324805001, 0.00052713654124051735, 0.7068039721848477, 0.21828187960119697, 0.00017575016033763885, 0.077876800262796572, 0.00043963049916702129, 0.0001628857176663236, 0.0005350074606205004, 0.00056187837337580014], [0.050341290492202678, 0.0054424269453184687, 0.19567790705492452, 0.34597239340658942, 0.0090380395571842548, 0.05321909101670335, 0.00028838014606649221, 0.168540242495163, 0.037340037818867182, 0.14723836462575504], [0.0046310074876572864, 0.00024488312361697077, 0.013826616423449064, 0.00090531146734368459, 0.83448492011033626, 0.015908219172400116, 0.056928119071728456, 0.00040638528903781256, 0.046074033974568898, 0.029216037436215193], [0.024444037932355969, 0.1125216104942178, 0.063667180671433968, 0.00026670200264160884, 0.00014377506026982576, 0.42342258631398777, 0.021341417178879628, 0.093275719159818776, 0.074161923586302664, 0.1410362341374313], [0.0026189939428711887, 0.020614000870310723, 0.0024003049171721692, 0.003671853570082186, 0.00077149251890213039, 0.00039436959996612799, 0.12326229695870017, 0.00021485424547554319, 0.046872618607621055, 0.00048873385853468918], [0.00024790465510065175, 0.00054496810670442075, 0.0071547529566123331, 0.014862532490980809, 0.0034993783331948168, 0.023172195108626222, 0.00035442656125927248, 0.58670275367245361, 0.0049087011769596636, 0.00041279123090895263], [0.010755096134093256, 0.1386904400362228, 0.0017751071059063138, 0.00061705957090809802, 9.619579811508804e-05, 0.014255409794807394, 0.075044219204389598, 0.02324095573815935, 0.69924750603665464, 0.00041695972263383082], [0.00031611211017888984, 0.36573273231041864, 0.074370335715789423, 0.061320079830905497, 0.023216542732605421, 0.075495611508787766, 0.047102840165823168, 0.00040788702501810142, 0.005167358908080193, 0.28817040156591167]]
Ros: [2.1624027126501515, 3.3606055459387498, 13.412653097218136, 2.4070863210537996, 7.1069783686891084, 8.6331604614593171, 2.1918701259881899, 4.2463917865080898, 2.1592398597185367, 7.013076665187902]
Mus: [0.61086214884691736, 0.54298391102546562, 2.8940186238975985, 0.18783611606939218, 1.2450837454151793, 3.1580487390161509, 0.075205491966382071, 3.4695095484012759, 0.2998622526542733, 2.9910430482283736]
Phis: [1.2510654726021488, 0.41058895520985483, 1.4998321285584513, 1.1659821939090693, 0.354567320400407, 1.1979144684695766, 0.34027801131440882, 0.66327725265357984, 0.76066476693933072, 0.91943412277787795]
Shis: [0.87417321607093768, 0.13234128491455249, 0.55366977136929041, 0.83192333104723348, 1.2042810760450473, 0.17750426111129053, 0.064941950368605089, 0.61744685892801832, 0.013374099827716483, 0.16682154936559213]
Spectral radius of the branch matrix: 0.862566417894






iteration: 4
----------------------
Etas: [0.69188643858379528, 0.148656915716641, 7.6905608954184208, 0.84357956270142165, 0.25399658587798613, 1.0779547770203741, 0.00024743510781737651, 0.35827450846182668, 0.77650836014689761, 0.77908501994235579]
Alphas: [8.5447068395902708, 3.122389673240126, 27.738299335920441, 0.9430375122783905, 2.7549786007989527, 2.6755163400263955, 1.8634102174119904, 70.991443223849288, 65.280483994989098, 10.778767049291666]
Neus: [[0.42348988170764762, 4.9758723542922615e-06, 0.045971006747133378, 0.053905610422411043, 0.013272420758416675, 0.022503758555148218, 0.014796098170665257, 0.11685672256666896, 2.386053449724199e-05, 0.017207334904002516], [0.00015260338498756647, 0.35073812330301546, 0.0067606947936819971, 0.0020305688121671794, 0.087013474004618702, 9.310587743237964e-05, 0.055450731769927195, 3.5937597787721333e-05, 3.4169579024381432e-05, 5.9745702703378536e-05], [0.10063753129966367, 0.004711531090749007, 0.19361445490533793, 0.15179307101512463, 0.16844532038156249, 0.10610018564086157, 0.0071185393846288861, 0.1071184543381242, 0.060813170950400029, 0.09573876388177327], [0.064465668479996616, 0.022247073538988589, 0.21451991997296271, 0.2465978471077207, 0.08979927269126807, 0.10098639438400508, 4.3542942610143608e-06, 0.041015451126586978, 0.12828441462706194, 0.0092820965254916191], [2.9024630820149848e-05, 1.0401730251329205e-05, 0.057689100947898385, 0.0020274952636373873, 0.58455813499862386, 0.0070517374272851324, 0.0055946711837486706, 0.050244378382110155, 0.003891013901388267, 0.013353999828139706], [0.03345311325426957, 0.11470058875137314, 0.10193124604879751, 0.073515456876284288, 1.4567218499571675e-05, 0.29061576013312418, 0.12547458272222126, 0.12104046829632903, 0.030948294164308318, 0.09290223506918259], [0.0019077396756645901, 2.9329036617071903e-05, 0.0033517070828247711, 0.0024533859418882304, 0.052319791922127233, 0.00030434084861680682, 0.21292853950365437, 5.1483817283841421e-05, 0.1106569937077078, 0.00019006807926136063], [0.00010309832779641106, 0.069575238211737001, 0.020320973578623641, 0.045135901649692757, 0.048335842378132904, 0.033302370520921387, 0.050729942619674728, 0.13340476693502973, 0.0025805594990887539, 0.063157156866483113], [0.046940516927543252, 0.014120306299344097, 0.012842713071819762, 0.0044045508773586763, 9.3494231353240367e-05, 0.017220089419794419, 0.061217564872876613, 0.016986768318163599, 0.39852781842872348, 0.13444236735974988], [0.05021439962023979, 0.092984985084876834, 0.05040333216718524, 0.09656219460604977, 0.065628399133315501, 0.072358170179579448, 0.10599373605881768, 0.0047028445776901642, 0.085148918424198222, 0.19913966936973537]]
Ros: [10.868716376414238, 9.8752145732950432, 17.34305163501546, 20.749642801003294, 28.769423087688331, 13.668222906769524, 8.4901162068948128, 9.8393502298507514, 12.003753989716733, 6.9104688671483148]
Mus: [4.7201027166544929, 2.4070861823347238, 4.2166716028171614, 4.7792399200199789, 15.967167476259348, 5.1032008140905072, 7.331983480604416, 11.585332829774064, 3.327680737961773, 4.236692262398293]
Phis: [6.2424861825056865, 2.0538231626515531, 10.423485789587669, 60.864015294833905, 13.533697964858078, 10.889629761195575, 2.8592353837011735, 2.1506266806049026, 24.121350170976033, 5.0891777114824208]
Shis: [7.3016931947422137, 2.3501914884071966, 10.48150021962061, 6.9939114129901228, 5.1603472314729411, 6.5413200797271998, 2.3048044084224957, 4.2498326961884665, 2.4810365685180762, 5.3004718571222025]
Spectral radius of the branch matrix: 0.730358321328






